Democrat,Per capita income,Median household income,Population 2020,Population growth rate,% foreign born,Life expectancy,% of people in poverty,Bachelor's degree,% of people without health insurance,Obama vote 2012,Biden vote 2020,Clinton vote 2016,Median home value,Income to home value ratio,Public spending per k-12 student,Public funding per k-12 student,cost of living index,K-12 spending as % of taxpayer income,K-12 spending as % of Per capita income,Teachers as a percent of staff salaries,Public education average post secondary,Literacy Rate,SAT Math score,Sales taxes,Sales tax %,Income tax,Income tax %,Property tax,Property tax %,License tax,License tax %,Other taxes,Other taxes %,Total taxes,Population,Total taxes per capita,Total tax rate,Income after taxes,PVI,% who smoke,Current smokers,% Tried to quit,Tried to quit,Former Smokers,Never smoked,Homicide Rate,GDP,GDP growth rate,Real GDP growth rate,GDP per capita,% of US GDP,Total Area,latest gini,Gini coefficient (2015-2019),Mean Years of Schooling,% not in poverty,% with health insurance,Score
False,33499.58620689655,62417.75862068965,6270073.620689655,0.07417241379310344,0.0653103448275862,77.28275862068965,0.13358620689655173,0.2967586206896552,0.11237931034482758,0.4127586206896552,0.404551724137931,0.3691413793103448,184510.3448275862,2.934284712245682,11468.724137931034,13218.620689655172,95.01034482758621,0.035675862068965516,0.3412959172888315,0.49955172413793103,28001.0,0.8842758620689656,569.3448275862069,7919598.655172414,0.5121034482758621,4104751.7586206896,0.3339310344827587,188769.0344827586,0.02755172413793103,821139.5172413794,0.06796551724137931,543089.0344827586,0.058517241379310345,13577348.0,5905884.1034482755,2599.621724137931,0.07773964412252668,30899.96448275862,-11.068965517241379,0.18920689655172415,811000.2413793104,0.572896551724138,473986.2068965517,1053147.8620689656,2563134.3448275863,6.617241379310345,454600551724.13794,0.057999999999999996,0.03144827586206897,71840.93103448275,0.016606896551724138,239495.1724137931,46.16034482758621,46.28793103448275,12.922849275862069,0.8664137931034483,0.8876206896551724,33578.623
True,41649.04347826087,77292.04347826086,21086186.608695652,0.07013043478260869,0.1314782608695652,79.31739130434782,0.11730434782608695,0.37726086956521737,0.07165217391304347,0.5923181818181819,0.5903478260869565,0.5497227272727273,323818.1818181818,4.086143866171109,16105.227272727272,18006.727272727272,113.1,0.03787727272727273,0.38455163124927344,0.5149090909090909,29392.954545454544,0.8817142857142858,541.0,9516183.666666666,0.42428571428571427,12659629.38095238,0.43057142857142855,468053.6666666667,0.03933333333333334,1343971.5714285714,0.07266666666666667,567280.9047619047,0.033095238095238094,24555119.19047619,7093123.904761905,3349.2519047619044,0.08274841950820094,37436.31952380952,6.809523809523809,0.15095454545454545,717163.6363636364,0.5913181818181819,421203.45454545453,1224573.4090909092,3126575.4545454546,6.021739130434782,1799516217391.3044,0.06026086956521739,0.017652173913043478,90866.52173913043,0.06575652173913044,137522.95238095237,46.81304347826087,47.0,13.167764739130435,0.882695652173913,0.9283478260869565,41730.17191304347
