Country,Eligible population ,Total English speakers count,Total English speakers percent,English as first language count,English as first language percent,English as an additional language count,English as an additional language percent
United States,312092668,297400000,0.952922098125035,244232103,0.782562770747309,42155719,17.04
India,1350000000,128539090,0.0952141407407407,259678,0.000192354074074074,128279412,9.5
Nigeria,206200000,125039680,0.6064,20000000,0.0969932104752667,103198040,50.05
Pakistan,220892331,108044691,0.489128302964941,8642,3.91231327990287E-05,108036049,48.91
United Kingdom,64000000,62912000,0.983,59072000,0.923,3840000,6
Philippines,110000000,70117935,0.637435772727273,36935,0.000335772727272727,70081000,63.71
Germany,80600000,45400000,0.563275434243176,392000,0.00486352357320099,45100000,55.96
Uganda,44270000,19800000,0.447255477750169,0,0,19800000,45
France,67500000,38643750,0.5725,0,0,38643750,57.25
Canada,37138500,30480750,0.820731855083,20193335,0.543730495308104,10287415,28.69
Egypt,110990000,44373802,0.3998,5527302,0.0498,38846500,35
Australia,23401892,21715910,0.927955312331157,17020421,0.727309612402279,4695489,20.06
Bangladesh,165323100,19838772,0.12,709873,0.00429385246223909,16398158,9.9
Poland,38501000,18890000,0.490636606841381,103541,0.00268930677125269,18786459,50
Ghana,27000000,18000000,0.666666666666667,0,0,18000000,66.67
Thailand,63038247,17121187,0.271599985957731,0,0,17121187,27.16
Ukraine,33365000,17016000,0.509995504270943,0,0,17016000,51
Italy,59619290,8121000,0.136214302451438,0,0,8121000,13.74
South Africa,52981991,16424417,0.309999996036389,4930510,0.0930601116896494,11493907,22
Mexico,120664000,15686262,0.129999519326394,0,0,15686262,12.9
Malaysia,27170000,15580000,0.573426573426573,380000,0.013986013986014,15200000,61.1
Indonesia,279118866,85968611,0.308000000974495,837356,0.0029999978575436,85131255,30.5
Afghanistan,41130000,2467800,0.06,0,0,2467800,6
Netherlands,16770000,15250000,0.909361955873584,0,0,15250000,90.9
Türkiye,80200256,12000000,0.149625457554649,0,0,12000000,17
Zimbabwe,14439000,11850710,0.820743126255281,505365,0.035,11530710,79.86
Iraq,31700000,11095000,0.35,95000,0.00299684542586751,11000000,34.70%
Brazil,205000000,10542000,0.0514243902439024,292000,0.00142439024390244,10250000,5
Spain,47190000,10400000,0.220385674931129,0,0,10400000,22
China,1432035200,10000000,0.00698306857261609,0,0,10000000,<1
Sweden,10377771,9236000,0.889979167973547,0,0,9236000,89
Kenya,43013431,8100000,0.188313273591219,0,0,7900000,
Cameroon,19740000,7500000,0.379939209726444,0,0,7500000,38
Morocco,37340000,6883220,0.184339046598822,0,0,6883220,18.3
Belgium,10584534,6250000,0.590484191368274,0,0,6250000,60
Israel,7303000,6205000,0.849650828426674,100000,0.0136930028755306,6105000,83.6
Austria,8415000,6150000,0.730837789661319,0,0,6150000,73
Romania,19043767,5900000,0.309812654187588,0,0,5900000,31
Hungary,9603634,2428295,0.252851680936612,0,0,2428295,25.29
Greece,10787690,5500000,0.509840382880858,0,0,5500000,51
Czechia,10562214,5350000,0.506522590812873,0,0,5350000,50
Russia,144699673,7000000,0.0483760595644193,0,0,7000000,5
Sierra Leone,5866000,4900000,0.835322195704057,500000,0.085236958745312,4400000,75
Denmark,5543000,4770000,0.860544831318781,0,0,4770000,86
Switzerland,7637300,4680000,0.612782004111401,73400,0.00961072630379846,4606600,60.32
Norway,5136700,4500000,0.876048825121187,0,0,4500000,90
Papua New Guinea,6331000,4459191,0.704342283999368,0,0,4459191,70.4
Ireland,4422100,4350000,0.983695529273422,4112100,0.929897559982814,237900,5.38
New Zealand,4275100,4181902,0.978199808191621,3673623,0.859306916797268,508279,11.89
Madagascar,23042300,4147614,0.18,0,0,4147614,18
Tanzania,40454000,4000000,0.0988777376773619,0,0,4000000,9.89
Sri Lanka,21803000,3994174,0.183193780672385,10000,0.000458652479016649,3994174,18.32
Singapore,4044200,3900000,0.964343998813115,1953348,0.482999851639385,1946652,48.13
Finland,5410000,3800000,0.702402957486137,0,0,3800000,70
Cambodia,15766292,3500000,0.221992590267896,0,0,3500000,22.2
Hong Kong,6808433,3136784,0.460720403652353,238288,0.0349989490973914,2898496,42.57
Liberia,3750000,3100000,0.826666666666667,600000,0.16,2500000,66.67
Jordan,6598000,2969370,0.450040921491361,0,0,2969370,45
Portugal,10623000,2900000,0.272992563306034,0,0,2900000,27
Argentina,42192500,2752681,0.0652410025478462,0,0,2752681,6.52
Jamaica,2714000,2650000,0.976418570375829,45900,0.0169123065585851,2604100,95.95
Croatia,4555000,2600000,0.570801317233809,,0,3950000,87.8
Algeria,35954000,2516780,0.07,0,0,2516780,7
Myanmar,53900000,2400000,0.0445269016697588,0,0,2400000,4.45
Yemen,24800000,2232000,0.09,0,0,2232000,9
Colombia,47661368,2012950,0.0422344150927435,75600,0.00158619030825972,1937350,4.06
Puerto Rico,3991000,1940000,0.486093710849411,100000,0.0250563768479078,1840000,46.1
Zambia,11922000,1910000,0.160208018788794,110000,0.00922663982553263,1800000,15.1
Bulgaria,7640238,1900000,0.248683352534306,2605,0.000340957964922035,1902605,25
Kazakhstan,12156705,1874583,0.154201570244569,602,4.95199974006114E-05,1873981,15.42
Lebanon,4265600,1706000,0.399943735933983,0,0,1706000,40
Chile,16634603,1585027,0.0952849310560643,0,0,1585027,9.53
Rwanda,10137400,1520610,0.15,0,0,1520610,15
Slovakia,5397036,1400000,0.259401641938279,0,0,1400000,26
Slovenia,2050000,1210000,0.590243902439024,0,0,1210000,59
Lithuania,3053800,1160000,0.379854607374419,0,0,1160000,38
Trinidad and Tobago,1305000,1145000,0.877394636015326,0,0,1145000,87.74
Latvia,2070371,950000,0.45885495884554,0,0,950000,46
Nepal,29890686,896720,0.0299999805959622,20000,0.000669104750556745,876720,2.93
Uruguay,3500000,840000,0.24,0,0,840000,24
Guyana,751000,680000,0.905459387483356,0,0,680000,90.55
Estonia,1294236,650000,0.502226796349352,0,0,650000,50
Botswana,1639833,630000,0.384185462787979,0,0,630000,38.42
Sudan,46874204,43921129,0.936999996842613,4781168,0.101999982762374,39139960,83.5
South Sudan,10913164,10258374,0.939999985338807,818487,0.0749999725102638,9439887,86.5
Cyprus,839000,630000,0.750893921334923,0,0,630000,75
Panama,4176869,584762,0.140000081400686,0,0,584762,14
Eswatini,1141000,550000,0.482033304119194,0,0,550000,48.2
Malawi,13931831,540209,0.0387751617142068,209,1.50016175189033E-05,540000,3.87
Lesotho,1795000,500000,0.278551532033426,0,0,500000,27.86
Suriname,470784,410000,0.870887710712344,,0,,
Malta,453000,400000,0.883002207505519,48000,0.105960264900662,352000,77.7
Iceland,376248,368723,0.979999893687143,,0,,
Namibia,1820916,314000,0.172440683699852,14000,0.007688438126745,300000,16.48
Luxembourg,509000,290000,0.569744597249509,0,0,290000,56
Bahamas,330549,288000,0.871277783324106,,0,,
Barbados,296000,296000,1,10000,0.0337837837837838,286000,96.62
Belize,301270,246000,0.816543300029874,16870,0.0559962824044877,229130,81.65
Costa Rica,4910526,400415,0.0815421810209334,0,0,400415,8.2
Mauritius,1264866,202000,0.159700711379703,2000,0.00158119516217528,200000,15.81
Vanuatu,215446,180000,0.835476175004409,60000,0.278492058334803,120000,55.7
Fiji,853445,176000,0.206223013785305,6000,0.00703033001540814,170000,19.92
Solomon Islands,552438,175000,0.316777629344831,10000,0.0181015788197047,165000,29.87
Guam,173456,158000,0.910893828982566,58000,0.334378747348031,100000,57.65
Brunei,381371,144000,0.377585081193903,10000,0.026221186194021,134000,35.14
Saint Vincent and the Grenadines,120000,114000,0.95,,0,,
U.S. Virgin Islands,107000,86000,0.803738317757009,86000,0.803738317757009,,
Grenada,110000,100000,0.909090909090909,,0,,
Samoa,188540,94000,0.498567943142039,1000,0.00530391428874509,93000,49.33
Isle of Man,80058,80000,0.999275525244198,80000,0.999275525244198,,
Saint Lucia,165000,71000,0.43030303030303,31000,0.187878787878788,40000,24.24
Northern Mariana Islands,84000,70000,0.833333333333333,5000,0.0595238095238095,65000,77.38
Antigua and Barbuda,85000,68000,0.8,,0,,
Federated States of Micronesia,111000,64000,0.576576576576577,4000,0.036036036036036,60000,54.05
Bermuda,65000,63000,0.969230769230769,63000,0.969230769230769,,
Dominica,67000,63000,0.940298507462687,3000,0.0447761194029851,60000,89.55
Marshall Islands,59000,58000,0.983050847457627,57500,0.974576271186441,500,0.85
American Samoa,57345,45933,0.80099398378237,1791,0.0312320167407795,44142,76.98
Aruba,104000,44000,0.423076923076923,9000,0.0865384615384615,35000,
The Gambia,1709000,40000,0.0234055002925688,0,0,40000,2.34
Saint Kitts and Nevis,50000,39000,0.78,,0,,
Cayman Islands,47000,36000,0.765957446808511,36000,0.765957446808511,,
Seychelles,87000,33000,0.379310344827586,3000,0.0344827586206897,30000,34.48
Tonga,100000,30000,0.3,0,0,30000,30
Gibraltar,28875,28875,1,28000,0.96969696969697,875,3.03
Kiribati,95000,23000,0.242105263157895,0,0,23000,24.21
British Virgin Islands,23000,20000,0.869565217391304,20000,0.869565217391304,,
Palau,20000,18500,0.925,500,0.025,18000,
Andorra,81222,17869,0.22000196990963,,0,17869,22
Anguilla,13000,12000,0.923076923076923,,0,,
Nauru,12000,11600,0.966666666666667,900,0.075,10700,89.17
Cook Islands,20200,4000,0.198019801980198,1000,0.0495049504950495,3000,14.85
Montserrat,5900,4000,0.677966101694915,4000,0.677966101694915,,
