﻿Country,EIA,OPEC,BP,Others,Oil production,Years of production in reserve
 Venezuela *(OPEC),"304,000","303,220","303,800",,"900,000",925
 Saudi Arabia *(OPEC),"267,000","267,230","297,600",,"8,950,000",79
 Iran *(OPEC),"209,000","208,600","155,600",,"4,084,000",140
 Iraq *(OPEC),"201,000","185,223","175,000",,"4,560,000",87
 Canada *,"170,000","171,000","172,200","171,000","5,300,000",88
 United Arab Emirates *(OPEC),"113,000","113,000","97,800",,"3,300,000",81
 Kuwait *(OPEC),"102,000","104,000","101,500",,"2,644,000",106
 Russia *(OPEC+),"80,000","99,000","107,800",,"10,126,000",22
 United States,"74,000","68,000","68,800","48,000","13,295,000",15
 Libya *(OPEC),"50,000","48,773","48,800","42,000","1,800,000",76
 Nigeria *(OPEC),"37,000","37,500","37,100",,"1,891,000",54
 Kazakhstan *(OPEC+),"30,000","30,000","30,000",,"1,950,000",42
 Somalia *,"30,000","30,000","30,000",,"50,000",164
 China *,"26,000","27,000","26,000",,"4,360,000",16
 Qatar *,"25,000","25,244","25,244",,"1,322,000",52
 Brazil *,"13,000","12,634","13,000","16,848","4,200,000",8
 Algeria *(OPEC),"12,000","12,200","12,200",,"1,160,000",28
 Guyana *,"11,000",,,"11,000","645,000",47
 Namibia *,"11,000",,,"11,000","250,000",121
 Ecuador,"8,300","8,273","8,000",,"510,000",45
 Norway *,"8,100","6,376","8,500",,"2,380,000",9
 Angola *,"7,800","8,384","7,800",,"1,649,000",13
 Azerbaijan *(OPEC+),"7,000","7,000","7,000",,"601,000",32
 Mexico *(OPEC+),"6,000","6,537","10,800","9,700","2,428,000",6.5
 Oman *(OPEC+),"5,400","5,373","5,300",,"1,040,000",14
 India *,"4,600","4,495","5,680","4,409","612,000",21
 Vietnam *,"4,400","4,400","4,000",,"176,000",68
 South Sudan(OPEC+),"3,800",,"3,500",,"160,000",65
 Malaysia *(OPEC+),"3,600","3,600","3,600","5,542","644,000",15
 Egypt *,"3,300","4,400","3,500",,"559,000",16
 Yemen *,"3,000",,"3,000",,"238,000",35
 Congo (OPEC),"2,900","1,811","2,900",,"271,000",29
 United Kingdom *,"2,500","2,069","2,800","2,618","647,000",11
 Syria *,"2,500","2,500","2,500",,"135,000",51
 Uganda *,"2,500","2,500","2,500",,"230,000",35
 Argentina *,"3,000","2,162","2,500",,"866,000",8
 Indonesia *,"2,500","3,310","3,600","3,497","635,000",11
 Australia *,"2,400","3,985","4,000","4,002","395,000",17
 Suriname,"2,400","2,400","2,400",,"16,000",421.5
 Colombia *,"2,000","1,665","2,300",,"787,000",7
 Gabon *(OPEC),"2,000","2,000","2,000",,"226,000",24
 Chad *,"1,500",,"1,500",,"140,000",33
 Turkey *,"1,400",,,1350,"89,000",43
 Sudan *(OPEC+),"1,300","5,000","1,500",,"200,000",18
 Brunei *(OPEC+),"1,100","1,100","1,100",,"100,000",30
 Equatorial Guinea *(OPEC),"1,100","1,100","1,100",,"79,000",38
 Peru *,900,,"1,400","1,489","53,000",47
 Ghana *,700,,,,"177,120",11
 Romania *,600,,600,,"69,000",24
 Turkmenistan *,600,600,600,,"270,000",6.1
 Uzbekistan *,600,594,600,,"67,000",25
 Pakistan *,500,,,236,"83,000",17
 Italy *,500,,600,595,"89,000",15
 Denmark *,400,439,600,550,"56,000",20
 Tunisia *,400,,400,,"33,000",33
 Ukraine *,400,,400,,"34,000",32
 Thailand *,300,,400,,"136,000",6
 Trinidad and Tobago *,200,,700,830,"54,000",10
 Bolivia *,200,,,210,"22,000",25
 Cameroon *,200,,,,"49,000",11
 Belarus *,200,198,,,"34,000",16
 Bahrain *(OPEC+),200,,,,"183,000",3
 DR Congo,200,,,,"25,000",22
 Papua New Guinea *,200,,,158,"31,000",18
 Albania *,200,,,,"14,000",39
 Chile *,200,,,,"2,300",238
 Niger *,200,,,,"6,000",91
 Spain *,200,,,,,
 Myanmar *,100,,,,"7,100",39
 Philippines,100,,,,900,304
 Netherlands,100,,,141,"28,000",10
 Cuba *,100,,,124,"30,000",9.1
 Germany *,100,,,229,"32,000",8.6
 Poland *,100,,,151,"18,000",15
 Ivory Coast *,100,,,,"29,000",9.4
 Guatemala,86,,,,"6,000",39
 Serbia *,77,,,,"13,000",16
 Croatia *,71,,,,"10,000",19
 France *,61,,,,"12,000",14
 Japan *,44,,,,"3,500",34
 New Zealand *,40,,,,"11,000",10
 Kyrgyzstan *,40,,,,"6,200",18
 Austria *,35,,,,"8,800",11
 Georgia *,35,,,,200,479
 Bangladesh *,28,,,,"3,000",26
 Mauritania *,20,,,,,
 Bulgaria *,15,,,,"1,000",41
 Czech Republic *,15,15,,,"1,400",29
 South Africa *,15,15,,,"12,000",3
 Israel *,12,,,12,"15,000",2.2
 Hungary *,12,,,35,"20,000",1.6
 Lithuania *,12,,,,700,47
 Tajikistan *,12,,,,300,110
 Greece *,10,,,,"1,500",18
 Slovakia *,9,,,,100,247
 Benin *,8,,,,,
 Belize *,6,,,,800,21
 Taiwan *,2,,,,200,27
 Barbados,1,,,,"1,000",2.7
 Jordan *,1,,,1,100,27
 World,"1,720,000","1,585,187","1,793,424",,"82,926,000",57