Country,Population
 China ,1411750000
 India ,1392329000
 United States ,335552000
 Indonesia ,278696200
 Pakistan ,241499431
 Nigeria ,216783400
 Brazil ,203062512
 Bangladesh ,169828911
 Russia ,146424729
 Mexico ,129202482
 Japan ,124450000
 Philippines ,110732000
 Ethiopia ,107334000
 Egypt ,105461000
 Vietnam ,100000000
Democratic Republic of the Congo,95370000
 Iran ,85329700
 Turkey ,85279553
 Germany ,84482267
 Thailand ,68263022
 France ,68184000
 United Kingdom ,67026292
 South Africa ,62027503
 Tanzania ,61741120
 Italy ,58780965
 Myanmar ,55770232
 Colombia ,52215503
 Kenya ,51526000
 South Korea ,51439038
 Spain ,48345223
 Argentina ,46654581
 Algeria ,45400000
 Iraq ,43324000
 Uganda ,42885900
 Sudan ,41984500
 Ukraine ,41130432
 Canada ,40459700
 Poland ,37691000
 Morocco ,37130600
 Uzbekistan ,36372276
 Afghanistan ,34262840
 Peru ,33396698
 Malaysia ,33379500
 Angola ,33086278
 Mozambique ,32419747
 Saudi Arabia ,32175224
 Yemen ,31888698
 Ghana ,30832019
Cote d'Ivoire,29389150
   Nepal ,29164578
 Venezuela ,28302000
 Cameroon ,28088845
 Madagascar ,26923353
 Australia ,26814400
 North Korea ,25660000
 Niger ,25369415
 Taiwan ,23399654
 Syria ,22923000
 Mali ,22395489
 Burkina Faso ,22185654
 Sri Lanka ,22037000
 Malawi ,21507723
 Chile ,19960889
 Kazakhstan ,19944726
 Zambia ,19610769
 Romania ,19051562
 Senegal ,18275743
 Somalia ,18143379
 Netherlands ,17945500
 Guatemala ,17602431
 Chad ,17414717
 Cambodia ,17091464
 Ecuador ,16938986
 Zimbabwe ,15178979
 Guinea ,13261638
 South Sudan ,13249924
 Rwanda ,13246394
 Burundi ,12837740
 Benin ,12606998
 Bolivia ,12006031
 Tunisia ,11850232
 Papua New Guinea ,11781559
 Belgium ,11772639
 Haiti ,11743017
 Jordan ,11493500
 Cuba ,11089511
Czechia,10873553
 Dominican Republic ,10760028
 Sweden ,10548336
 Greece ,10482487
 Portugal ,10467366
 Azerbaijan ,10151517
 Tajikistan ,10077600
 Israel ,9802400
 Honduras ,9745149
 Hungary ,9597085
 United Arab Emirates ,9282410
 Belarus ,9200617
 Austria ,9129652
  Switzerland ,8902308
 Sierra Leone ,8494260
 Togo ,8095498
 Hong Kong,7498100
 Laos ,7443000
 Kyrgyzstan ,7100000
 Turkmenistan ,7057841
 Libya ,6931061
 El Salvador ,6884888
 Nicaragua ,6733763
 Serbia ,6641197
 Bulgaria ,6447710
 Paraguay ,6109644
Republic of the Congo,6106869
 Denmark ,5944145
 Singapore ,5917600
 Central African Republic ,5633412
 Finland ,5557272
 Norway ,5514042
 Lebanon ,5490000
 Palestine ,5483450
 Slovakia ,5426352
 Ireland ,5281600
 Costa Rica ,5262225
 Liberia ,5248621
 New Zealand ,5223100
 Oman ,5113071
 Kuwait ,4670713
 Mauritania ,4475683
 Panama ,4337406
 Croatia ,3855641
 Eritrea ,3748902
 Georgia ,3736400
 Uruguay ,3566550
 Mongolia ,3457548
 Bosnia and Herzegovina ,3277082
 Puerto Rico (US) ,3221789
 Armenia ,2981200
 Lithuania ,2866965
 Jamaica ,2825544
 Albania ,2761785
 Qatar ,2656032
 Namibia ,2641857
 Moldova ,2512758
The Gambia,2417471
 Botswana ,2410338
 Lesotho ,2306000
 Gabon ,2233272
 Slovenia ,2117674
 Latvia ,1882000
 North Macedonia ,1832696
 Guinea-Bissau ,1781308
 Kosovo ,1773971
 Bahrain ,1577059
 Equatorial Guinea ,1558160
 Estonia ,1365884
 Trinidad and Tobago ,1365805
Timor-Leste,1354662
 Mauritius ,1261041
 Eswatini ,1223362
 Djibouti ,1001454
 Cyprus ,918100
 Fiji ,893468
 Bhutan ,770276
 Comoros ,758316
 Guyana ,743699
 Solomon Islands ,734887
 Macau (China) ,678800
 Luxembourg ,660809
 Montenegro ,616695
 Suriname ,616500
Western Sahara ,587259
 Malta ,519562
 Cape Verde ,491233
 Brunei ,445400
 Belize ,441471
 Bahamas ,397360
 Iceland ,394200
 Northern Cyprus ,382836
 Maldives ,382751
 Transnistria ,360938
 Vanuatu ,301295
 French Polynesia (France) ,279890
 New Caledonia (France) ,268510
 Barbados ,267800
 Abkhazia ,245424
 São Tomé and Príncipe ,214610
 Samoa ,205557
 Saint Lucia ,178696
 Guam (US) ,153836
 Curaçao (Netherlands),148925
 Artsakh ,148900
 Kiribati ,120740
 Grenada ,112579
 Saint Vincent and the Grenadines ,110872
 Aruba (Netherlands) ,106739
 Micronesia ,105754
 Jersey (UK) ,103267
 Antigua and Barbuda ,100772
 Seychelles ,100447
 Tonga ,100179
 U.S. Virgin Islands (US) ,87146
 Isle of Man (UK) ,84069
 Andorra ,83523
 Cayman Islands (UK) ,71105
 Dominica ,67408
 Guernsey (UK) ,64234
 Bermuda (UK) ,64055
 Greenland (Denmark) ,56865
 South Ossetia ,56520
 Faroe Islands (Denmark) ,54738
 American Samoa (US) ,49710
 Northern Mariana Islands (US) ,47329
 Saint Kitts and Nevis ,47195
 Turks and Caicos Islands (UK) ,46131
 Sint Maarten (Netherlands) ,42938
 Marshall Islands ,42418
 Liechtenstein ,39680
 Monaco ,39050
 Gibraltar (UK) ,34003
 San Marino ,33881
Saint Martin (France) ,32358
 British Virgin Islands (UK) ,31538
 Åland (Finland) ,30569
 Palau ,16733
 Anguilla (UK) ,15701
 Cook Islands ,15040
 Nauru ,11832
 Wallis and Futuna (France) ,11369
 Tuvalu ,10679
 Saint Barthélemy (France) ,10585
 Saint Pierre and Miquelon (France) ,6092
" Saint Helena, Ascension and Tristan da Cunha (UK) ",5651
 Montserrat (UK) ,4433
 Falkland Islands (UK) ,3662
 Norfolk Island (Australia) ,2188
 Christmas Island (Australia) ,1692
 Tokelau (New Zealand) ,1647
 Niue ,1549
  Vatican City ,764
 Cocos (Keeling) Islands (Australia) ,593
 Pitcairn Islands (UK) ,47
